{
	"System_Text":[
		{	
			"name": "Quadre1",
			"String": "This painting's really old. It's surrounded by names related to the humanities. It's interesting that it's on the left..." 
		},
		{	
			"name": "Quadre2",
			"String": "This painting's really old. It's surrounded by names related to the sciences. It's interesting that it's on the right..." 
		},
		{
			"name": "Nope",
			"String": "Hmm, it doesn't look like it's working." 
		},
		{
			"name": "ClauArxiu",
			"String": "This key might get us into the manuscript room..." 
		},
		{
			"name": "LlibreClau",
			"String": "This key might get us out of the library..." 
		},
		{
			"name": "BadPala",
			"String": "We won't be able to use it here..." 
		},
		{
			"name": "Pala",
			"String": "This spade might be usefull." 
		},
		{
			"name": "PartClau",
			"String": "It looks like part of a key. The other part must be around somewhere..." 
		},
		{
			"name": "PartClau1",
			"String": "It looks like part of a key. The other part must be around somewhere..." 
		},
		{
			"name": "PartClau2",
			"String": "It looks like part of a key. The other part must be around somewhere..." 
		},
		{
			"name": "ClauFinal",
			"String": "We've got the whole key now!" 
		},
		{
			"name": "PartClauUse",
			"String": "It's no use at the moment." 
		},
		{
			"name": "ClauFinalUse",
			"String": "We need a door to open with the key." 
		},
		{
			"name": "KeyComplete",
			"String": "We've got two parts of the key! We're closer to getting out of here." 
		},
		{
			"name": "Radev1",
			"String": "He's sleeping... he is holding a sign, it reads: 'Better Call Another'." 
		},
		{
			"name": "Llibreta1",
			"String": "These are a bright student's notes..." 
		},
		{
			"name": "Llibreta2",
			"String": "Gosh, I'm really dreading next week's exam." 
		},
		{
			"name": "Llibreta3",
			"String": "Wow! They're great drawings." 
		}
	]
}