{
  "1": [
    {
      "name": "1",
      "Lines": 1,
      "Persona_0": "Character3",
      "Line_0": "We need to decipher the password. The two words are bound to be connected!"
    }
  ],
 "2": [
    {
      "name": "2",
      "Lines": 1,
      "Persona_0": "Character3",
      "Line_0": "I think using the letter chart would be a good way to solve this mystery..."
    }
  ],
  "3": [
    {
      "name": "3",
      "Lines": 1,
      "Persona_0": "Character3",
      "Line_0": "Maybe we need to move the letters..."
    }
  ],
  "4": [
    {
      "name": "4",
      "Lines": 1,
      "Persona_0": "Character3",
      "Line_0": "To the left, I think!"
    }
  ],
  "no": [
    {
      "name": "no",
      "Lines": 1,
      "Persona_0": "Character5",
      "Line_0": "I don't know what it could be related to."
    }
  ]
}