{
	"System_Text":[
		{	
			"name": "Quadre1",
			"String": "Este cuadro es realmente antiguo. Tiene un montón de referencias al campo de las letras. Es curioso, está a la izquierda." 
		},
		{	
			"name": "Quadre2",
			"String": "Este cuadro es realmente antiguo. Tiene un montón de referencias al campo de las ciencias. Es curioso, está a la derecha." 
		},
		{
			"name": "Nope",
			"String": "Mmm... parece que esto no funciona." 
		},
		{
			"name": "ClauArxiu",
			"String": "Esta llave nos podría servir para entrar en la sala de manuscritos..." 
		},
		{
			"name": "LlibreClau",
			"String": "Esta llave nos podría ser útil para poder salir de la biblioteca..." 
		},
		{
			"name": "BadPala",
			"String": "Aquí no la podemos usar..." 
		},
		{
			"name": "Pala",
			"String": "Esta pala nos podría ser útil..." 
		},
		{
			"name": "PartClau",
			"String": "Parece la parte de una llave. En algún sitio debe estar la otra." 
		},
		{
			"name": "PartClau1",
			"String": "Parece la parte de una llave. En algún sitio debe estar la otra." 
		},
		{
			"name": "PartClau2",
			"String": "Parece la parte de una llave. En algún sitio debe estar la otra." 
		},
		{
			"name": "ClauFinal",
			"String": "¡Ya tenemos toda la llave!" 
		},
		{
			"name": "PartClauUse",
			"String": "Ahora mismo no nos sirve." 
		},
		{
			"name": "ClauFinalUse",
			"String": "Para que la llave sea útil, necesitamos una puerta." 
		},
		{
			"name": "KeyComplete",
			"String": "Tenemos las dos partes de la llave, ya estamos más cerca de la salida." 
		},
		{
			"name": "Radev1",
			"String": "Parece que está durmiendo... en el cartel pone: 'Better Call Another'." 
		},
		{
			"name": "Llibreta1",
			"String": "Esto son los apuntes de un buen estudiante." 
		},
		{
			"name": "Llibreta2",
			"String": "¡Buff! Llevo fatal el examen de la semana que viene." 
		},
		{
			"name": "Llibreta3",
			"String": "¡Uauh! Estos dibujos son impresionantes." 
		}
	]
}