{
	"System_Text":[
		{	
			"name": "Quadre1",
			"String": "Aquest quadre és realment antic. Té tot de noms que fan referència a la branca de les lletres. És curiós, és a l’esquerra." 
		},
		{	
			"name": "Quadre2",
			"String": "Aquest quadre és realment antic. Té tot de noms que fan referència a la branca de les cienciès. És curiós, és a la dreta." 
		},
		{
			"name": "Nope",
			"String": "Mmm... sembla que això no funciona." 
		},
		{
			"name": "ClauArxiu",
			"String": "Aquesta clau ens podria servir per entrar a la sala de manuscrits..." 
		},
		{
			"name": "LlibreClau",
			"String": "Aquesta clau ens podria ser útil per sortir de la biblioteca..." 
		},
		{
			"name": "BadPala",
			"String": "Aquí no la podem fer servir..." 
		},
		{
			"name": "Pala",
			"String": "Aquesta pala ens podria ser útil..." 
		},
		{
			"name": "PartClau1",
			"String": "Sembla la part d’una clau. En alguna banda hi ha d’haver l’altre tros." 
		}
		,
		{
			"name": "PartClau2",
			"String": "Sembla la part d’una clau. En alguna banda hi ha d’haver l’altre tros." 
		}
		,
		{
			"name": "ClauFinal",
			"String": "Ja tenim la clau sencera!" 
		},
		{
			"name": "PartClauUse",
			"String": "Ara per ara és inservible." 
		},
		{
			"name": "ClauFinalUse",
			"String": "Perquè la clau sigui útil, necessitem una porta." 
		},
		{
			"name": "KeyComplete",
			"String": "Tenim les dues parts de la clau, ja som més a prop de la sortida." 
		},
		{
			"name": "Radev1",
			"String": "Sembla que està dormint...té un cartell que fica 'Better Call Another'." 
		},
		{
			"name": "Llibreta1",
			"String": "Això són els apunts d’un bon estudiant." 
		},
		{
			"name": "Llibreta2",
			"String": "Bufff! No porto gens bé l’examen de la setmana que ve." 
		},
		{
			"name": "Llibreta3",
			"String": "Buah! Són uns dibuixos impressionants." 
		}
	]
}



